gridcode,koeppen_class,hexcolor,GRASSRGB
11,Af,#960000,150:0:0
12,Am,#FF0000,255:0:0
13,As,#FF6E6E,255:110:110
14,Aw,#FFCCCC,255:204:204
21,BSh,#CC8D14,204:141:20
22,BSk,#CCAA54,204:170:84
26,BWh,#FFCC00,255:204:0
27,BWk,#FFFF64,255:255:100
31,Cfa,#007800,0:120:0
32,Cfb,#005000,0:80:0
33,Cfc,#003200,0:50:0
34,Csa,#96FF00,150:255:0
35,Csb,#00D700,0:215:0
36,Csc,#00AA00,0:170:0
37,Cwa,#BEBE00,190:190:0
38,Cwb,#8C8C00,140:140:0
39,Cwc,#5A5A00,90:90:0
41,Dfa,#550055,85:0:85
42,Dfb,#820082,130:0:130
43,Dfc,#C800C8,200:0:200
44,Dfd,#FF6EFF,255:110:255
45,Dsa,#646464,100:100:100
46,Dsb,#8C8C8C,140:140:140
47,Dsc,#BEBEBE,190:190:190
48,Dsd,#E6E6E6,230:230:230
49,Dwa,#6E28B4,110:40:180
50,Dwb,#B464FA,180:100:250
51,Dwc,#C89BFA,200:155:250
52,Dwd,#C8C8FF,200:200:255
61,EF,#6496FF,100:150:255
62,ET,#64FFFF,100:255:255
99,Ocean,#F5FFFF,245:255:255
